ISE Colombia
…
Reshape data

# Now we reshape the data to the long or stacked format:

data = data |>
  tidyr::pivot_longer(cols = 3:4,
                      names_to ="serie_iSE",
                      values_to = "value")

data

# A tibble: 88 × 4
     ano   mes serie_iSE                                       value
   <dbl> <dbl> <chr>                                           <dbl>
 1  2022     1 indicador_de_seguimiento_a_la_economia_original  8.23
 2  2022     1 indicador_de_seguimiento_a_la_economia_ajustado  7.88
 3  2022     2 indicador_de_seguimiento_a_la_economia_original  6.79
 4  2022     2 indicador_de_seguimiento_a_la_economia_ajustado  6.93
 5  2022     3 indicador_de_seguimiento_a_la_economia_original  7.04
 6  2022     3 indicador_de_seguimiento_a_la_economia_ajustado  6.83
 7  2022     4 indicador_de_seguimiento_a_la_economia_original 10.2 
 8  2022     4 indicador_de_seguimiento_a_la_economia_ajustado  9.79
 9  2022     5 indicador_de_seguimiento_a_la_economia_original 16.7 
10  2022     5 indicador_de_seguimiento_a_la_economia_ajustado 16.5 
# ℹ 78 more rows
…
